<svg xmlns="http://www.w3.org/2000/svg" width="36" height="36" viewBox="0 0 36 36">
  <g id="baseline-check_circle_outline-24px_1_" data-name="baseline-check_circle_outline-24px (1)" transform="translate(-8348 -7814)">
    <path id="Path_1805" data-name="Path 1805" d="M0,0H36V36H0ZM0,0H36V36H0Z" transform="translate(8348 7814)" fill="none"/>
    <path id="Path_1806" data-name="Path 1806" d="M23.885,10.37,14,20.255l-5.385-5.37L6.5,17,14,24.5l12-12ZM17,2A15,15,0,1,0,32,17,15.005,15.005,0,0,0,17,2Zm0,27A12,12,0,1,1,29,17,12,12,0,0,1,17,29Z" transform="translate(8349 7815)" fill="#5fc32c"/>
  </g>
</svg>
